{
  "pokemons": [
    {
      "id": 1,
      "name": "bulbasaour",
      "img": "https://raw.githubusercontent.com/HybridShivam/Pokemon/master/assets/images/001.png"
    },
    {
      "id": 2,
      "name": "ivysaur",
      "img": "https://raw.githubusercontent.com/HybridShivam/Pokemon/master/assets/images/002.png"
    },
    {
      "id": 3,
      "name": "venusaur",
      "img": "https://raw.githubusercontent.com/HybridShivam/Pokemon/master/assets/images/003-Mega.png"
    },
    {
      "id": 4,
      "name": "charmander",
      "img": "https://raw.githubusercontent.com/HybridShivam/Pokemon/master/assets/images/004.png"
    },
    {
      "id": 5,
      "name": "bulbasaourcharmeleon",
      "img": "https://raw.githubusercontent.com/HybridShivam/Pokemon/master/assets/images/005.png"
    },
    {
      "id": 6,
      "name": "alola",
      "img": "https://raw.githubusercontent.com/HybridShivam/Pokemon/master/assets/images/038-Alola.png"
    },
    {
      "name": "charizard Update",
      "img": "https://raw.githubusercontent.com/HybridShivam/Pokemon/master/assets/images/006-Gigantamax.png",
      "id": 10
    }
  ]
}